EESchema Schematic File Version 4
LIBS:Amp_linear-cache
EELAYER 26 0
EELAYER END
$Descr A4 11693 8268
encoding utf-8
Sheet 1 1
Title ""
Date ""
Rev ""
Comp ""
Comment1 ""
Comment2 ""
Comment3 ""
Comment4 ""
$EndDescr
$Comp
L Device:D_Bridge_+AA- D1
U 1 1 5BBD565E
P 2250 2150
F 0 "D1" H 2591 2150 50  0000 L CNN
F 1 "D_Bridge_+AA-" H 2591 2105 50  0001 L CNN
F 2 "Diode_THT:Diode_Bridge_15.1x15.1x6.3mm_P10.9mm" H 2250 2150 50  0001 C CNN
F 3 "~" H 2250 2150 50  0001 C CNN
	1    2250 2150
	1    0    0    -1  
$EndComp
$Comp
L power:GND #PWR0101
U 1 1 5BBD5711
P 1650 2200
F 0 "#PWR0101" H 1650 1950 50  0001 C CNN
F 1 "GND" H 1655 2027 50  0000 C CNN
F 2 "" H 1650 2200 50  0001 C CNN
F 3 "" H 1650 2200 50  0001 C CNN
	1    1650 2200
	1    0    0    -1  
$EndComp
Wire Wire Line
	2250 1850 2250 1750
Wire Wire Line
	2250 2600 2250 2450
$Comp
L Device:CP C1
U 1 1 5BBD5836
P 3000 1950
F 0 "C1" H 3118 1996 50  0000 L CNN
F 1 "4700u" H 3118 1905 50  0000 L CNN
F 2 "Capacitor_THT:CP_Radial_D22.0mm_P10.00mm_SnapIn" H 3038 1800 50  0001 C CNN
F 3 "~" H 3000 1950 50  0001 C CNN
	1    3000 1950
	1    0    0    -1  
$EndComp
$Comp
L Device:CP C2
U 1 1 5BBD58A4
P 3000 2400
F 0 "C2" H 3118 2446 50  0000 L CNN
F 1 "4700u" H 3118 2355 50  0000 L CNN
F 2 "Capacitor_THT:CP_Radial_D22.0mm_P10.00mm_SnapIn" H 3038 2250 50  0001 C CNN
F 3 "~" H 3000 2400 50  0001 C CNN
	1    3000 2400
	1    0    0    -1  
$EndComp
Wire Wire Line
	2550 2150 2550 1650
Wire Wire Line
	2550 1650 3000 1650
Wire Wire Line
	3000 1650 3000 1800
Wire Wire Line
	1950 2150 1950 2700
Wire Wire Line
	1950 2700 3000 2700
Wire Wire Line
	3000 2700 3000 2550
Wire Wire Line
	3000 2250 3000 2200
$Comp
L power:GND #PWR0102
U 1 1 5BBD5B57
P 2800 2300
F 0 "#PWR0102" H 2800 2050 50  0001 C CNN
F 1 "GND" H 2805 2127 50  0000 C CNN
F 2 "" H 2800 2300 50  0001 C CNN
F 3 "" H 2800 2300 50  0001 C CNN
	1    2800 2300
	1    0    0    -1  
$EndComp
Wire Wire Line
	2800 2300 2800 2200
Wire Wire Line
	2800 2200 3000 2200
Connection ~ 3000 2200
Wire Wire Line
	3000 2200 3000 2100
$Comp
L Device:CP C3
U 1 1 5BBD5D1B
P 3550 1950
F 0 "C3" H 3668 1996 50  0000 L CNN
F 1 "4700u" H 3668 1905 50  0000 L CNN
F 2 "Capacitor_THT:CP_Radial_D22.0mm_P10.00mm_SnapIn" H 3588 1800 50  0001 C CNN
F 3 "~" H 3550 1950 50  0001 C CNN
	1    3550 1950
	1    0    0    -1  
$EndComp
$Comp
L Device:CP C4
U 1 1 5BBD5D5F
P 3550 2400
F 0 "C4" H 3668 2446 50  0000 L CNN
F 1 "4700u" H 3668 2355 50  0000 L CNN
F 2 "Capacitor_THT:CP_Radial_D22.0mm_P10.00mm_SnapIn" H 3588 2250 50  0001 C CNN
F 3 "~" H 3550 2400 50  0001 C CNN
	1    3550 2400
	1    0    0    -1  
$EndComp
Wire Wire Line
	3550 2250 3550 2200
Wire Wire Line
	3000 2200 3550 2200
Connection ~ 3550 2200
Wire Wire Line
	3550 2200 3550 2100
Wire Wire Line
	3550 1800 3550 1650
Wire Wire Line
	3550 1650 3000 1650
Connection ~ 3000 1650
Wire Wire Line
	3550 2550 3550 2700
Wire Wire Line
	3550 2700 3000 2700
Connection ~ 3000 2700
$Comp
L Device:C C5
U 1 1 5BBD64CB
P 4050 1950
F 0 "C5" H 4165 1996 50  0000 L CNN
F 1 "100n" H 4165 1905 50  0000 L CNN
F 2 "Capacitor_THT:C_Rect_L7.0mm_W2.0mm_P5.00mm" H 4088 1800 50  0001 C CNN
F 3 "~" H 4050 1950 50  0001 C CNN
	1    4050 1950
	1    0    0    -1  
$EndComp
$Comp
L Device:C C6
U 1 1 5BBD6527
P 4050 2400
F 0 "C6" H 4165 2446 50  0000 L CNN
F 1 "100n" H 4165 2355 50  0000 L CNN
F 2 "Capacitor_THT:C_Rect_L7.0mm_W2.0mm_P5.00mm" H 4088 2250 50  0001 C CNN
F 3 "~" H 4050 2400 50  0001 C CNN
	1    4050 2400
	1    0    0    -1  
$EndComp
Wire Wire Line
	4050 2250 4050 2200
Wire Wire Line
	4050 1800 4050 1650
Wire Wire Line
	4050 1650 3550 1650
Connection ~ 3550 1650
Wire Wire Line
	3550 2700 4050 2700
Wire Wire Line
	4050 2700 4050 2550
Connection ~ 3550 2700
Wire Wire Line
	3550 2200 4050 2200
Connection ~ 4050 2200
Wire Wire Line
	4050 2200 4050 2100
$Comp
L Device:Fuse F1
U 1 1 5BBD7169
P 4550 1650
F 0 "F1" V 4353 1650 50  0000 C CNN
F 1 "6.3A" V 4444 1650 50  0000 C CNN
F 2 "Fuse:Fuseholder_Cylinder-5x20mm_Schurter_0031_8201_Horizontal_Open" V 4480 1650 50  0001 C CNN
F 3 "~" H 4550 1650 50  0001 C CNN
	1    4550 1650
	0    1    1    0   
$EndComp
$Comp
L Device:Fuse F2
U 1 1 5BBD71DB
P 4550 2700
F 0 "F2" V 4353 2700 50  0000 C CNN
F 1 "6.3A" V 4444 2700 50  0000 C CNN
F 2 "Fuse:Fuseholder_Cylinder-5x20mm_Schurter_0031_8201_Horizontal_Open" V 4480 2700 50  0001 C CNN
F 3 "~" H 4550 2700 50  0001 C CNN
	1    4550 2700
	0    1    1    0   
$EndComp
Wire Wire Line
	4400 2700 4050 2700
Connection ~ 4050 2700
Wire Wire Line
	4400 1650 4050 1650
Connection ~ 4050 1650
$Comp
L Connector:Conn_01x03_Male J2
U 1 1 5BBD7990
P 6250 2200
F 0 "J2" H 6222 2130 50  0000 R CNN
F 1 "OUT" H 6222 2221 50  0000 R CNN
F 2 "TerminalBlock:TerminalBlock_bornier-3_P5.08mm" H 6250 2200 50  0001 C CNN
F 3 "~" H 6250 2200 50  0001 C CNN
	1    6250 2200
	-1   0    0    1   
$EndComp
$Comp
L Device:LED D2
U 1 1 5BBB30C5
P 5650 1950
F 0 "D2" H 5642 1695 50  0000 C CNN
F 1 "LED" H 5642 1786 50  0000 C CNN
F 2 "LED_THT:LED_D5.0mm" H 5650 1950 50  0001 C CNN
F 3 "~" H 5650 1950 50  0001 C CNN
	1    5650 1950
	-1   0    0    1   
$EndComp
$Comp
L Device:R R1
U 1 1 5BBB3244
P 5200 1950
F 0 "R1" V 5407 1950 50  0000 C CNN
F 1 "2.2k,1W" V 5316 1950 50  0000 C CNN
F 2 "Resistor_THT:R_Axial_DIN0207_L6.3mm_D2.5mm_P2.54mm_Vertical" V 5130 1950 50  0001 C CNN
F 3 "~" H 5200 1950 50  0001 C CNN
	1    5200 1950
	0    -1   -1   0   
$EndComp
$Comp
L Device:R R2
U 1 1 5BBB334A
P 5200 2500
F 0 "R2" V 5400 2500 50  0000 C CNN
F 1 "2.2k,1W" V 5300 2500 50  0000 C CNN
F 2 "Resistor_THT:R_Axial_DIN0207_L6.3mm_D2.5mm_P2.54mm_Vertical" V 5130 2500 50  0001 C CNN
F 3 "~" H 5200 2500 50  0001 C CNN
	1    5200 2500
	0    -1   -1   0   
$EndComp
$Comp
L Device:LED D3
U 1 1 5BBB33F6
P 5650 2500
F 0 "D3" H 5641 2716 50  0000 C CNN
F 1 "LED" H 5641 2625 50  0000 C CNN
F 2 "LED_THT:LED_D5.0mm" H 5650 2500 50  0001 C CNN
F 3 "~" H 5650 2500 50  0001 C CNN
	1    5650 2500
	1    0    0    -1  
$EndComp
Wire Wire Line
	5500 2500 5350 2500
Wire Wire Line
	6050 1650 6050 2100
Wire Wire Line
	4700 1650 4900 1650
Wire Wire Line
	5050 1950 4900 1950
Wire Wire Line
	4900 1950 4900 1650
Connection ~ 4900 1650
Wire Wire Line
	4900 1650 6050 1650
Wire Wire Line
	5350 1950 5500 1950
Wire Wire Line
	5800 1950 5950 1950
Wire Wire Line
	5950 1950 5950 2200
Wire Wire Line
	5950 2200 6050 2200
Wire Wire Line
	4050 2200 5950 2200
Connection ~ 5950 2200
Wire Wire Line
	6050 2700 6050 2300
Wire Wire Line
	4700 2700 4900 2700
Wire Wire Line
	5050 2500 4900 2500
Wire Wire Line
	4900 2500 4900 2700
Connection ~ 4900 2700
Wire Wire Line
	4900 2700 6050 2700
Wire Wire Line
	5800 2500 5950 2500
Wire Wire Line
	5950 2500 5950 2200
Text Label 2700 1650 0    50   ~ 0
V+
Text Label 2700 2700 0    50   ~ 0
V-
Text Label 6050 1650 0    50   ~ 0
V1+
Text Label 6050 2700 0    50   ~ 0
V1-
Text Label 1700 1750 0    50   ~ 0
AC1
Text Label 1700 2600 0    50   ~ 0
AC2
$Comp
L Connector:Conn_01x02_Male J1
U 1 1 5BBB7EE9
P 1050 1850
F 0 "J1" H 1156 2028 50  0000 C CNN
F 1 "IN1" H 1156 1937 50  0000 C CNN
F 2 "TerminalBlock:TerminalBlock_bornier-2_P5.08mm" H 1050 1850 50  0001 C CNN
F 3 "~" H 1050 1850 50  0001 C CNN
	1    1050 1850
	1    0    0    -1  
$EndComp
$Comp
L Connector:Conn_01x02_Male J3
U 1 1 5BBB8038
P 1050 2250
F 0 "J3" H 1156 2428 50  0000 C CNN
F 1 "IN2" H 1156 2337 50  0000 C CNN
F 2 "TerminalBlock:TerminalBlock_bornier-2_P5.08mm" H 1050 2250 50  0001 C CNN
F 3 "~" H 1050 2250 50  0001 C CNN
	1    1050 2250
	1    0    0    -1  
$EndComp
Wire Wire Line
	1250 1850 1250 1750
Wire Wire Line
	1250 1750 2250 1750
Wire Wire Line
	1250 2350 1250 2600
Wire Wire Line
	1250 2600 2250 2600
Wire Wire Line
	1650 2100 1250 2100
Wire Wire Line
	1250 2100 1250 1950
Wire Wire Line
	1650 2100 1650 2200
Wire Wire Line
	1250 2100 1250 2250
Connection ~ 1250 2100
$EndSCHEMATC
